Versuch:                                V1-R0-DPM0-GPK0-TD200-SW1-MW1
Messrauschen:                           nein
DP-Identifikation:                      einfach
GP-Kernel:                              Matern(length_scale=5, nu=1.5) + WhiteKernel(noise_level=1)
Trainingsdaten:                         200
Schrittweite:                           1
Mittelwertweite:                        1

MSE Modell:
[0.00834866 0.00460664 0.02798213 0.03391312 0.01081271 0.01337988
 0.01695009 0.0158971  0.00150177 0.00371942 0.00287407 0.00483775
 0.00772602 0.03874218 0.00741064 0.03255681 0.00813371 0.04005047
 0.0171873  0.02624069 0.00720016 0.00375669 0.035347   0.00684755
 0.02092008 0.01359552 0.00625316 0.01665088 0.00211268 0.00913824
 0.02237465 0.03581926 0.04231255 0.00908982 0.00513036 0.00601581
 0.03593011 0.01738105 0.01397157 0.0070054  0.01875124 0.00975574
 0.00643696 0.04934119 0.01547344 0.00117183 0.01286294 0.00355115
 0.00770342 0.01681901 0.01679856 0.01794696 0.01485899 0.00891386
 0.00505451 0.02364505 0.01586807 0.03253535 0.01232784 0.00219226
 0.01607703 0.0166457  0.0129386  0.00400953 0.0104505  0.01384323
 0.00644334 0.00591503 0.03331535 0.00624179 0.01060207 0.02935663
 0.00425107 0.0289812  0.01384414 0.01482881 0.01358186 0.03468968
 0.04297487 0.04283965 0.00238026 0.01561359 0.00136958 0.01989406
 0.01382582 0.00996244 0.00423528 0.01638318 0.00431175 0.00691214
 0.00394291 0.00895136 0.01517644 0.00545771 0.01383165 0.00628842
 0.01716039 0.00824713 0.00662895 0.03781879]

MSE Modell + GP:
[0.00001502 0.00000448 0.00007941 0.00008495 0.00001524 0.00001235
 0.00004315 0.00001058 0.00000097 0.00000328 0.00000224 0.00000997
 0.00003013 0.00007204 0.00001137 0.00007188 0.00001197 0.00013264
 0.00003811 0.0000389  0.00000831 0.0000036  0.00010987 0.00000658
 0.00005337 0.00002887 0.00001063 0.00004011 0.00000129 0.00001794
 0.00005981 0.00007902 0.00008155 0.00001784 0.0000066  0.0000065
 0.00006672 0.00004233 0.00001201 0.0000126  0.00004324 0.00001578
 0.00001018 0.00017435 0.00001729 0.00000185 0.00002868 0.00000428
 0.00002343 0.00001893 0.00003465 0.00004019 0.00001211 0.00002784
 0.00001284 0.00002592 0.00003829 0.00007425 0.00004794 0.00000638
 0.00001879 0.00001051 0.0000295  0.00001247 0.00004138 0.00002735
 0.00002442 0.00000902 0.00010286 0.00000676 0.0000153  0.0000677
 0.0000164  0.00008805 0.00002658 0.00001163 0.00002459 0.00005273
 0.00014762 0.0001471  0.00000685 0.0000378  0.00000068 0.00005119
 0.00001392 0.00003014 0.00000446 0.00003192 0.00000677 0.00002349
 0.0000053  0.00003898 0.00003994 0.00000749 0.00001233 0.00001091
 0.00004222 0.00000789 0.00002436 0.00005882]
RMSE Modell:
[0.07269023 0.05654508 0.13717232 0.15925698 0.08805438 0.09626842
 0.1073379  0.10480179 0.03184524 0.04892832 0.04338015 0.05103507
 0.07235416 0.17778097 0.07012416 0.16005489 0.07549002 0.16285688
 0.10738425 0.14978237 0.07508584 0.05005408 0.15332869 0.0751243
 0.11337456 0.09755034 0.06580812 0.10704388 0.03653628 0.07653867
 0.11866281 0.16826667 0.18338256 0.0765318  0.05712636 0.06830686
 0.17241688 0.10960968 0.09617739 0.06953425 0.11027105 0.08216926
 0.06390312 0.1805775  0.09241373 0.02917568 0.09118159 0.04927649
 0.06774428 0.1198722  0.09831702 0.10355448 0.10727121 0.07355038
 0.05274415 0.14051772 0.10151825 0.15897936 0.09050066 0.03717901
 0.11690491 0.10851529 0.09107215 0.04928763 0.08388472 0.09639344
 0.06572272 0.06221324 0.14888472 0.06860224 0.08710533 0.15007725
 0.05415118 0.13750265 0.09622908 0.09561888 0.0948971  0.16674616
 0.16847084 0.16818137 0.03848369 0.10023403 0.03064158 0.11450879
 0.10861593 0.07777256 0.05257811 0.11105428 0.05119055 0.06584896
 0.05025561 0.07948052 0.10026348 0.05860893 0.09356798 0.06304773
 0.10605982 0.08332679 0.066015   0.17092865]

RMSE Modell + GP:
[0.00283671 0.00141524 0.00668785 0.00607467 0.00284047 0.00248935
 0.00445242 0.00238963 0.00065113 0.00119218 0.00097191 0.00212486
 0.00396074 0.00537409 0.00245581 0.0055353  0.00251414 0.00860742
 0.00466223 0.00383343 0.00182575 0.00129857 0.00783889 0.00162127
 0.0055655  0.0035879  0.00232005 0.00427094 0.00077064 0.00307798
 0.00588838 0.00577963 0.00575051 0.00306616 0.00183707 0.00161896
 0.00517731 0.00438624 0.00250317 0.00253064 0.00499971 0.00292365
 0.00231204 0.00979647 0.00299415 0.00095998 0.00393589 0.0014556
 0.00341097 0.00263933 0.00446381 0.00482527 0.00248251 0.00371435
 0.00248476 0.00309933 0.00454502 0.00564396 0.00489276 0.00181934
 0.00265379 0.00242889 0.00394734 0.00252768 0.00458475 0.00392327
 0.00357996 0.00216631 0.00761583 0.00178165 0.00285351 0.00541853
 0.00297113 0.00709813 0.0038686  0.00234392 0.00371443 0.00452538
 0.00906153 0.00904592 0.0018774  0.00448813 0.00057532 0.00528099
 0.00227681 0.00384206 0.0014645  0.00371648 0.00168986 0.00346717
 0.00148237 0.00447528 0.00431072 0.0019681  0.00250244 0.00216468
 0.00479135 0.00176395 0.00356328 0.004849  ]

Aufzeichnung Mittelwerte

Mittelwert Time Modell:                 -0.243616
Mittelwert Time GP:                     -0.235744
Maximum MSE Modell:                     0.049341
Maximum MSE Modell + GP:                0.000174
Mittelwert MSE Modell:                  0.015120
Mittelwert MSE Modell + GP:             0.000033
Maximum RMSE Modell:                    0.183383
Maximum RMSE Modell + GP:               0.009796
Mittelwert RMSE Modell:                 0.095273
Mittelwert RMSE Modell + GP:            0.003618
