Versuch:                                V1-R10-DPM1-GPK0-TD50-SW1-MW1
Messrauschen:                           nein
DP-Identifikation:                      einfach
GP-Kernel:                              Matern(length_scale=5, nu=1.5) + WhiteKernel(noise_level=1)
Trainingsdaten:                         50
Schrittweite:                           1
Mittelwertweite:                        1

MSE Modell:
[280.09362348 229.27686772   0.40793307 223.31222964   0.45832997
  57.27835128 188.56740309  25.41537238 287.72408159   4.33144398
  35.52286147  68.56495077 129.69575543 132.98223157  45.19962879
  63.86762321  56.30682884 235.02991603 292.41185382 190.67415443
   1.30818992 273.1914099   74.16423202   5.22223601  40.12740232
  54.48055307 241.59715157 100.23976163   9.71407449 421.11925532
  60.37173432  34.56803739   9.95260271  18.46489774 276.03332868
 163.58761242 280.20946054 250.91407634 241.98812754  73.09287898
   4.49104845   0.36183456   3.4052197    0.32035739  57.03750626
  63.77734943  38.66175474   6.4238185  107.79759768 255.43012033
   5.40031501   6.5812583   50.66076424   1.51623492   8.35694799
  49.3232306    0.23509311  40.60329223   1.43839651   0.94776707
  12.96730697  16.81164381  92.0092095  263.9715975  464.38037296
   0.384484    40.57523587  66.38969932  83.89949011  27.96908493
   3.13123489   0.91974688  15.77628124  13.28025454   2.99916992
   7.05764237   0.42025625   4.62967488 183.60586886   4.27646146
 136.62042003  10.33949887  93.16963179  23.26942491 202.64831967
  11.45402983   5.61854481 224.33167599   0.39223018   0.57195591
 162.91605949  41.64824449 441.51867418 169.83048062 151.15937568
 190.93593562   2.78874371 121.20160992  39.73770027   2.92616488]

MSE Modell + GP:
[240.6218672  194.01501154   0.34507661 144.87499301   0.2818526
   0.35155283  99.83588457   0.44278574 229.54630993   0.27059271
   0.43964138   0.37241294  49.95674143  43.41680821   0.33819231
  26.22668923   0.53734279 144.47911658 254.35485327 165.34420098
   0.26703641 230.41496413  55.79174489   0.27807838   0.91778617
   0.37599491 211.87762745   2.43479872   0.26215825 364.66323559
   3.31743216   0.33016337   0.32151018   0.23675925 211.34376104
  77.30678247 244.08870529 187.72837499 198.41074829  34.02020651
   0.28930953   0.31711836   0.25912777   0.29015213   4.07927608
   9.14812526   0.30843249   0.31101198  50.11088974 182.2620051
   0.27040363   0.35383213   0.44901803   0.25470272   0.26987693
  16.34383574   0.23509048   0.39421684   0.32185045   0.3071012
   0.34746609   0.37832115  89.13582775 177.71403988 404.89486795
   0.37931612   0.29155344  44.69727169  48.50811854   0.3145413
   0.44050771   0.33633646   0.33557355   0.29769086   0.24624696
   0.44452244   0.41882559   0.30001522  81.79155619   0.25196193
  57.00931645   0.32494531  64.26628365   0.29631109 123.12231835
   0.31756268   0.38527739 136.38556241   0.24952624   0.24860432
 127.06594758   5.67445469 370.36776886 134.2008066   58.6118555
 154.68793103   0.26723093  45.05066685   0.44818741   0.23323193]
RMSE Modell:
[14.40579571 13.25203666  0.5316056  13.3328935   0.56985159  6.86725117
 12.68969706  4.41460684 14.44050783  1.97676384  5.13566596  7.73343199
 10.34418088 10.73630458  6.21328703  6.78143152  7.05371659 14.31066312
 14.52491242 12.08477224  0.96728856 14.4050131   7.8178511   2.001816
  5.59686281  6.9489631  13.48647599  9.42362759  2.73208949 17.64229422
  7.06507112  4.9106903   2.48917186  3.94184433 14.42997263 11.7309873
 14.65169081 13.53735118 13.6146359   7.48628654  1.90716154  0.49850006
  1.63334286  0.46980214  7.23236817  7.50963476  5.31946874  2.17109424
  8.95319248 13.88304481  1.97304559  2.17241695  6.28027222  0.95827311
  2.5854435   6.1986214   0.40420064  5.91627841  0.98860824  0.79489783
  3.06482622  3.74076345  8.22543212 14.87642556 18.44763357  0.54175602
  5.87440108  7.20629717  8.01715722  3.76243511  1.49126185  0.84150215
  3.59448361  3.31207201  1.55904185  2.1521391   0.57198389  1.83700981
 12.91243794  1.68343946 10.62619185  2.99114684  7.84174578  4.42331831
 12.73743289  3.07088675  2.011065   13.78285031  0.51025417  0.62437058
 11.0618974   5.91234893 18.19016094 11.14418232 11.47868408 12.08334594
  1.36651731  9.93885601  5.27815736  1.40516402]

RMSE Modell + GP:
[13.41025481 12.13999602  0.50930204 10.40932238  0.43932026  0.50302195
  8.80779807  0.58339767 12.83527833  0.44948262  0.54754204  0.46058086
  6.25511768  5.80202388  0.48845431  4.43123825  0.61515309 10.95900746
 13.67584976 11.29883265  0.46091041 13.21434746  6.75630333  0.44091037
  0.7147513   0.47647929 12.63491708  1.23157795  0.43855932 16.40013403
  1.46739305  0.46604975  0.46963304  0.40308531 12.4922666   7.65552655
 13.68158741 11.63158568 12.23541163  4.99740744  0.43574531  0.4858904
  0.44208988  0.46014339  1.64699164  2.50857569  0.44299196  0.46403071
  5.97506835 11.30351923  0.41231133  0.50158746  0.52650095  0.41899865
  0.44162429  3.49279993  0.40426509  0.48970482  0.47909615  0.46728482
  0.49423185  0.53404708  7.95144673 11.82409677 17.17202261  0.54171482
  0.4595079   5.83033941  6.04091203  0.46484387  0.58191563  0.50548944
  0.50609163  0.47773042  0.42190138  0.55627473  0.57498362  0.47368972
  8.5201506   0.42057619  6.58176012  0.47945442  6.87313821  0.46047495
  9.57296261  0.47383646  0.51378033 10.46165636  0.41524878  0.43157043
  9.77034895  1.92701845 16.46929249  9.95581192  6.84241207 10.88510314
  0.43532831  5.43083948  0.55988369  0.40628636]

Aufzeichnung Mittelwerte

Mittelwert Time Modell:                 -0.109341
Mittelwert Time GP:                     -0.065427
Maximum MSE Modell:                     464.380373
Maximum MSE Modell + GP:                404.894868
Mittelwert MSE Modell:                  92.187718
Mittelwert MSE Modell + GP:             58.177535
Maximum RMSE Modell:                    18.447634
Maximum RMSE Modell + GP:               17.172023
Mittelwert RMSE Modell:                 6.803201
Mittelwert RMSE Modell + GP:            4.279872
