Versuch:                                V1-R5-DPM0-GPK0-TD500-SW1-MW1-NOTICE
Messrauschen:                           nein
DP-Identifikation:                      einfach
GP-Kernel:                              Matern(length_scale=5, nu=1.5) + WhiteKernel(noise_level=1)
Trainingsdaten:                         500
Schrittweite:                           1
Mittelwertweite:                        1

MSE Modell:
[ 11.35885847   0.94168942   1.14459932  83.6555198  149.17509935
  91.1768891  163.56365059 200.60352368 310.60946466  13.40319526
   1.63636757   1.79745473   5.11548396  92.47199948   0.61735181
  41.30231428  70.68412441  83.32860336  21.22669616   8.40274059
  19.10513639  40.02180613   2.45660708  35.82976065 216.93069726
   6.59485366   8.96205475  82.49765092  23.40335037  52.47449615
   7.80582636 137.64810273  19.84377275   3.94323591 321.83856251
   6.37066001  11.71627137 215.48230576   3.00570369  99.7488012
  37.21606412   3.12474421  58.81927241  46.63679104 206.51760354
   4.20280181  27.96878926   4.98326995  92.04993453 245.57256856
 240.1857608   58.97238646  66.85477368  20.56459825  50.43816224
 101.74317902  23.67739086   3.28086342  18.01816007  26.87535399
 132.8089618   15.16497227   0.65954128   1.78927099 140.16399959
  18.01212404   8.40896397 204.45881633   4.53600452  85.36513986
  93.19810022 101.44152205 154.54271976  28.39138231 170.51666908
   4.90391809  11.77416782   1.87881836  11.02254142 228.30045836
  60.98472474  82.08211196  67.99641899 143.83274475  23.34149545
  32.93153409  38.24102755   5.21473085 190.7142102    1.19315521
   4.12270791  17.20144644  25.58543041   1.18046467   8.32249533
  56.32692704   1.71376971  10.95653777   2.2865825  256.45047072]

MSE Modell + GP:
[  0.07531744   0.07554645   0.0782135    0.12035151  66.21358966
   0.11519772   0.14388521 121.83026119 236.92174135   0.07501741
   0.07945244   0.07591298   0.0774128    0.12658537   0.06662224
   0.09155907   0.1082164    0.12054727   0.07947809   0.07344351
   0.07843532   0.08804285   0.07324976   0.09799666 216.92703363
   0.07409953   0.07940968   0.11515691   0.07851995   0.10140031
   0.07232048 137.64810981   0.07972077   0.07346461 246.00891598
   0.07135123   0.0794909  138.72354868   0.07574841   0.1268362
   0.09127458   0.07564607   0.10287168   0.09401006 206.51760619
   0.0753662    0.08404092   0.07083098   0.11990538 245.57256861
 162.15419039   0.09961042   0.10276099   0.08017992   0.09866146
   0.12879687   0.08328873   0.08082447   0.08110187   0.08042111
  33.93260314   0.07912752   0.07785076   0.07379981  56.26644618
   0.07681176   0.07929333   0.17241606   0.0712985    0.11324844
   0.11678672   0.11707119  70.44990807   0.07649317  94.83705064
   0.08508317   0.0822434    0.07398634   0.08169903 151.44661335
   0.10065134   0.11944589   0.10414818  57.04227939   0.08045458
   0.08551063   0.0954554    0.07666074 110.51860439   0.07861265
   0.06716662   0.08201418   0.08510435   0.08190189   0.07393295
   0.10061352   0.08230876   0.0761752    0.07457669 256.45047313]
RMSE Modell:
[ 3.37029056  0.97040683  1.06985949  9.14633915 12.21372586  9.54865902
 12.78920055 14.16345734 17.624116    3.66103746  1.27920583  1.34069189
  2.26174357  9.61623624  0.78571739  6.42668766  8.40738511  9.12845022
  4.60724388  2.89874811  4.37094228  6.32627901  1.56735672  5.98579658
 14.72856739  2.56804472  2.99366911  9.08282175  4.83770094  7.24392823
  2.7938909  11.73235282  4.45463497  1.98575827 17.9398596   2.52401664
  3.42290394 14.67931558  1.73369654  9.98743216  6.10049704  1.7676946
  7.66937236  6.82911349 14.37072036  2.05007361  5.28855266  2.23232389
  9.59426571 15.6707552  15.49792763  7.67934805  8.17647685  4.53482064
  7.10198298 10.08678239  4.86594193  1.81131538  4.24478033  5.18414448
 11.52427706  3.89422294  0.81212147  1.33763634 11.83908779  4.24406928
  2.89982137 14.29890962  2.12978978  9.23932573  9.65391632 10.07181821
 12.43152122  5.32835644 13.05820313  2.21447919  3.43135073  1.37069995
  3.3200213  15.10961477  7.80927172  9.05991788  8.24599412 11.99302901
  4.8313037   5.73860036  6.18393302  2.28357852 13.80993158  1.09231644
  2.03044525  4.14746265  5.05820427  1.08649191  2.88487354  7.50512672
  1.30911028  3.31006613  1.512145   16.01407102]

RMSE Modell + GP:
[ 0.27444024  0.27485715  0.27966676  0.34691715  8.13717332  0.33940789
  0.37932205 11.03767463 15.39226239  0.27389307  0.28187308  0.2755231
  0.27823155  0.35578838  0.25811285  0.30258729  0.32896261  0.34719918
  0.28191859  0.27100463  0.28006306  0.29672016  0.27064693  0.31304418
 14.72844301  0.27221229  0.28179722  0.33934778  0.28021411  0.31843416
  0.26892467 11.73235312  0.28234866  0.27104356 15.68467137  0.26711652
  0.2819413  11.77809614  0.27522429  0.35614071  0.30211684  0.27503831
  0.32073616  0.30661059 14.37072045  0.27452906  0.28989812  0.2661409
  0.34627356 15.6707552  12.73397779  0.31561118  0.32056355  0.28316059
  0.31410423  0.35888281  0.28859787  0.28429645  0.2847839   0.28358616
  5.8251698   0.28129614  0.27901749  0.2716612   7.50109633  0.27714934
  0.28159071  0.41523013  0.26701779  0.33652406  0.34174072  0.34215667
  8.39344435  0.27657399  9.73843163  0.29169019  0.28678109  0.27200431
  0.28583043 12.30636475  0.31725596  0.34560945  0.32271998  7.55263394
  0.28364517  0.29242201  0.30895857  0.27687676 10.5127829   0.28037947
  0.25916524  0.28638119  0.29172649  0.28618506  0.27190615  0.31719635
  0.28689504  0.27599855  0.27308732 16.0140711 ]

Aufzeichnung Mittelwerte

Mittelwert Time Modell:                 -0.998957
Mittelwert Time GP:                     -3.209220
Maximum MSE Modell:                     321.838563
Maximum MSE Modell + GP:                256.450473
Mittelwert MSE Modell:                  64.536148
Mittelwert MSE Modell + GP:             26.168011
Maximum RMSE Modell:                    17.939860
Maximum RMSE Modell + GP:               16.014071
Mittelwert RMSE Modell:                 6.571402
Mittelwert RMSE Modell + GP:            2.335127
