Versuch:                                V1-R20-DPM1-GPK0-TD100-SW1-MW1
Messrauschen:                           nein
DP-Identifikation:                      einfach
GP-Kernel:                              Matern(length_scale=5, nu=1.5) + WhiteKernel(noise_level=1)
Trainingsdaten:                         100
Schrittweite:                           1
Mittelwertweite:                        1

MSE Modell:
[ 104.23506901  403.45494148  528.9798872   149.06375244  221.31940596
    2.20623097  238.47587288  261.38773984   56.78217023  454.89712938
   36.49653257    4.39453875  139.90746112  211.50315242  157.68966842
   24.76155124  122.68232248  620.6209502    61.67134365  562.24552766
   27.49124878   78.96526192  102.46999517   36.13715743   16.49735477
   62.32789894 1151.70481053   56.69874859  210.32024696  146.7721043
  339.27280072  111.75711907  150.27533214   71.85085636   41.88184388
    2.99643663  349.11154483   35.8541736   106.61428146   39.71913053
  167.11759423   40.42066856  191.95706234   27.30744803  445.25011737
   52.34359901  441.51502559   88.02454458  154.87719223  727.37106202
 1536.26759177   79.79909542    5.11888358  410.56474034  454.68563127
  302.64383886  347.31849752  211.21470943   31.62359214   33.98339199
  316.00431943  163.02505671  468.69147062 1182.2643699  1054.33119046
  876.9655721    26.37224291   16.29692509  189.29930038   58.96671758
   93.39960906  224.09819514 1562.49334782  297.89596056   56.7535532
 1379.05802425 1718.73572266   47.59816321  137.53812028    1.27460955
   53.72209347  152.48264421  232.15113398  111.45073735  471.09962237
    2.54367722   10.82850652   29.75340167  509.30965126   42.58470042
  118.8740332   165.47774149 2086.21943787  852.95899     942.55474285
  127.56976279  501.06892703 1701.41719438  208.6534769   733.63529119]

MSE Modell + GP:
[  60.0055633   384.56474752  491.93112076  147.16452594  201.3328573
    1.30856931  167.57932398  216.56596536   29.05274564  423.31156038
   11.78329899    1.14853705  126.7979844   171.26237872  101.17778277
    1.2924764    47.94081649  615.66714187    1.94029265  536.96748534
    0.93272515    1.82381989   51.715877      1.69099875    1.45674542
   22.57069442 1119.11534126    1.41011223  153.21581893  106.90569086
  309.1312075    25.87612845  146.96593722   22.93077201    1.70271025
    1.28223614  346.88645862   12.45477416   61.79361135    1.73912611
   60.90393775    1.04272035  154.36878474    1.39216657  407.42466093
    1.71456006  421.62474765   67.30532824  154.87711216  688.14916646
 1474.82757141    1.97925166    1.08474129  389.93402399  440.39109417
  284.48478963  339.13830333  185.47345071    4.34947288    1.3867039
  278.02536964  152.62445713  353.83123574 1126.99339277  962.99436066
  857.88275967    1.39194038    1.4710406   183.41209378   10.79185785
   67.02434596  194.52970045 1544.25842296  297.89594917    4.28786786
 1321.03351509 1655.15424772   25.50181929  101.69799643    1.07904284
    1.755216    110.9581023   202.02116411   60.89682799  456.32971514
    1.05250036    1.07472206    1.24389963  509.3097873    14.227139
   90.71743032  139.58324485 2083.35570891  747.10441451  880.62984011
  127.56993022  474.58768977 1627.50436022  159.48868665  618.45285377]
RMSE Modell:
[ 9.21008508 15.75360872 18.47299531 10.37892137 12.6018168   1.2075031
 11.67871547 14.18756508  6.29927284 16.84757581  5.0910375   1.68636039
 10.81681078 12.02641787 11.22356203  4.679016    9.8658338  20.66088282
  7.03562734 19.31977067  4.70153161  8.06076862  8.97129489  5.29337986
  3.3472586   6.47348965 30.44292357  6.70661129 12.28287415  9.55426877
 14.71892293  9.28613692 10.07864942  7.21462475  5.51212522  1.44012646
 16.67390098  4.72602177  9.12471418  5.73317095 11.56873001  5.56370476
 11.13381828  4.38813777 18.72375222  6.67481816 17.13159452  7.13960793
 10.21645325 23.8474265  35.25097202  7.8851507   1.89588908 16.495554
 17.57829892 13.38425001 15.16423807 11.98360165  4.77927453  5.02022463
 15.87168256 11.24418535 19.12154681 29.3359638  28.63367494 25.4563057
  4.80830712  3.54803221 11.91691205  6.97603624  8.30149519 13.08458821
 34.38971698 14.09104201  6.58115046 33.31291904 36.9935338   5.48599002
  9.01742917  0.92958391  6.53724389 11.26217633 12.36255166  9.08844466
 18.94664553  1.34300791  2.61608282  4.72753069 19.86614066  5.07745517
  8.61273551 11.49263487 40.43465036 25.83209532 25.13147998  9.42013579
 18.3469377  36.78152103 11.04540232 23.81011607]

RMSE Modell + GP:
[ 7.03607654 15.18301878 17.71595884 10.2103104  12.33451765  0.98950233
  9.81977288 12.95735654  4.17614505 16.26101331  2.810046    0.93297129
  9.93694006 10.90360294  8.93910899  0.9827991   6.06218809 20.50238661
  1.17788461 18.7714814   0.80299291  1.06274325  5.75586128  1.0290398
  0.99411496  3.79060025 29.9608083   1.0259716  10.67840767  7.94778065
 14.04633356  4.36489532  9.96821642  4.12708805  1.13910574  0.9735919
 16.47597134  2.77244364  7.0817638   1.07461372  6.80534837  0.86713085
  9.72677145  0.95834528 17.88996314  1.02200057 16.73106978  6.25644611
 10.21643493 23.19683515 34.51172474  1.16992329  0.89710621 16.01611299
 16.84346443 12.88622094 14.91023326 11.16314469  1.64262139  0.99626373
 14.83234046 10.26979032 16.50725698 28.67853651 27.35841621 25.24851864
  1.04187132  1.0644094  11.55918251  2.65602908  7.05320546 11.47752915
 34.1629128  14.09101501  1.64164236 32.57466648 36.27525126  3.88544033
  8.618689    0.865612    1.10251655  9.55262845 10.90932563  6.62889769
 18.58823322  0.85962655  0.89925505  0.94322988 19.86617143  2.75433382
  7.5138943  10.45976875 40.39838774 24.12535969 24.43336106  9.42029828
 17.52303285 35.93676447 10.29284354 21.82811911]

Aufzeichnung Mittelwerte

Mittelwert Time Modell:                 -0.260776
Mittelwert Time GP:                     -0.098439
Maximum MSE Modell:                     2086.219438
Maximum MSE Modell + GP:                2083.355709
Mittelwert MSE Modell:                  321.763161
Mittelwert MSE Modell + GP:             286.619932
Maximum RMSE Modell:                    40.434650
Maximum RMSE Modell + GP:               40.398388
Mittelwert RMSE Modell:                 12.670468
Mittelwert RMSE Modell + GP:            10.813810
