Versuch:                                V1-R0-DPM1-GPK0-TD100-SW2-MW1
Messrauschen:                           nein
DP-Identifikation:                      einfach
GP-Kernel:                              Matern(length_scale=5, nu=1.5) + WhiteKernel(noise_level=1)
Trainingsdaten:                         200
Schrittweite:                           2
Mittelwertweite:                        1

MSE Modell:
[0.2949576  0.03829012 0.72437053 1.55931244 0.0955774  0.03522858
 0.86608709 0.03606093 0.01512535 0.03096111 0.02262482 0.09234987
 0.38553307 0.85157131 0.18020895 1.2499568  0.13187061 0.97405263
 0.31433143 0.39245293 0.05355747 0.04517713 0.89790379 0.03836819
 0.45382318 0.45252317 0.13244273 0.78182736 0.01839284 0.31954446
 0.48898075 1.25295293 0.95370178 0.310746   0.09976946 0.04156299
 0.82957249 0.84989922 0.03207329 0.15940834 0.30757569 0.15963075
 0.1626482  2.32324782 0.15579095 0.02240501 0.67205442 0.05771567
 0.24417533 0.11605706 0.28035764 0.31878429 0.01442262 0.32811151
 0.11887297 0.17945177 0.95614835 1.33479083 0.61223725 0.05849954
 0.12562166 0.03745097 0.63106269 0.10407744 0.54132939 0.24691102
 0.27134306 0.12678512 0.76115055 0.04527983 0.1013624  1.32601608
 0.16854175 0.72774148 0.22161294 0.06993818 0.1842598  0.56005506
 1.64422724 1.66685396 0.06160005 0.92896358 0.01264895 1.21796325
 0.06329596 0.39463431 0.05905216 0.51872637 0.05567466 0.22482352
 0.04090979 0.47458639 0.75042981 0.11557274 0.03894303 0.10189249
 1.03571326 0.03971817 0.25244975 0.65512703]

MSE Modell + GP:
[0.00111738 0.00010223 0.00352506 0.00559539 0.00046794 0.0001964
 0.00292606 0.00020036 0.0000417  0.00006354 0.0000335  0.0005313
 0.00181391 0.00366211 0.00068951 0.00451803 0.00059259 0.00558757
 0.00159955 0.00171306 0.00026353 0.00010869 0.00458898 0.00011546
 0.0028096  0.0015396  0.00055539 0.00258326 0.00003016 0.00132926
 0.00299474 0.0047846  0.00416978 0.00130581 0.00031757 0.00017873
 0.00346403 0.00280247 0.00019266 0.00070212 0.00177721 0.00078204
 0.00060812 0.00973005 0.0010488  0.00012678 0.00274507 0.00016668
 0.00122331 0.00062981 0.00179097 0.00200088 0.00010078 0.00152349
 0.00070866 0.00090104 0.00397731 0.00477406 0.00297223 0.00042687
 0.00064921 0.00019077 0.00267801 0.00072565 0.00259082 0.00123734
 0.00133523 0.00049309 0.00428865 0.00017423 0.00049755 0.00452463
 0.00084978 0.00426829 0.00111713 0.00043804 0.0009433  0.00241988
 0.00770391 0.00774435 0.00045247 0.00388453 0.00002443 0.00513618
 0.00037395 0.00171399 0.00015614 0.00170025 0.00031639 0.00121771
 0.00021844 0.00230797 0.00263215 0.00038841 0.00023395 0.0005154
 0.00435072 0.00014376 0.00129483 0.00277655]
RMSE Modell:
[0.44500513 0.17218021 0.69655092 1.00051977 0.26923198 0.16586034
 0.70049602 0.15489725 0.09240867 0.15379231 0.11869632 0.2399577
 0.49645732 0.81911546 0.35943099 0.93523802 0.31205779 0.81890699
 0.47619748 0.56795666 0.19304599 0.16547533 0.76980032 0.17157529
 0.56287663 0.51515378 0.29281849 0.66592091 0.11275704 0.45789082
 0.58656225 0.95237945 0.86095383 0.45141219 0.25270907 0.16969148
 0.80833259 0.69427488 0.15794133 0.32265863 0.47523525 0.34492198
 0.32087091 1.20961481 0.32762224 0.1217848  0.6736175  0.19584836
 0.38974531 0.30914838 0.44484252 0.47480506 0.09667701 0.44877011
 0.27502454 0.3799313  0.80390036 0.95493896 0.62454302 0.19482833
 0.31965599 0.15785232 0.64904064 0.26193641 0.58809596 0.42469475
 0.41975641 0.27965692 0.72550707 0.18905782 0.27706922 0.92920834
 0.33126861 0.7142837  0.4036148  0.21563816 0.37050985 0.66377605
 1.03626039 1.04116246 0.20027215 0.78957119 0.08482861 0.90412887
 0.22636103 0.48640464 0.19614699 0.57499623 0.18468233 0.38221328
 0.15725635 0.55450067 0.6524534  0.26993548 0.1742953  0.24875531
 0.83611039 0.17685922 0.40682643 0.70955568]

RMSE Modell + GP:
[0.02951727 0.00762594 0.05306546 0.06524666 0.01899668 0.0115917
 0.04757422 0.01188684 0.0052232  0.00563898 0.00415988 0.01905106
 0.03781785 0.051517   0.0228753  0.05809183 0.02116779 0.06545521
 0.03576492 0.03430009 0.01282008 0.00833261 0.05997298 0.00810339
 0.04647051 0.03426122 0.02102397 0.04464223 0.00433668 0.03249309
 0.04795075 0.05973267 0.05525682 0.03223353 0.01526607 0.0103707
 0.05007474 0.04646203 0.01137091 0.02370251 0.03710678 0.02459182
 0.02167317 0.08583167 0.02842944 0.00906708 0.04668706 0.01127333
 0.0304692  0.01988788 0.03720561 0.03925549 0.00781946 0.03441634
 0.02213286 0.02399186 0.05627187 0.05982604 0.04847468 0.01640177
 0.02033821 0.01149257 0.04627998 0.02196679 0.04522727 0.03143449
 0.03222309 0.01951571 0.05764843 0.01066967 0.01960356 0.05840345
 0.02529872 0.0572384  0.02985522 0.01770188 0.02736518 0.04118052
 0.07660981 0.07679579 0.01693008 0.05569999 0.00403749 0.06390344
 0.01498633 0.03660354 0.01022342 0.03578034 0.01452959 0.03035037
 0.01195532 0.04270558 0.04525567 0.01704416 0.012692   0.01885887
 0.05880899 0.00887548 0.03158364 0.04440197]

Aufzeichnung Mittelwerte

Mittelwert Time Modell:                 -0.164762
Mittelwert Time GP:                     -0.103486
Maximum MSE Modell:                     2.323248
Maximum MSE Modell + GP:                0.009730
Mittelwert MSE Modell:                  0.415305
Mittelwert MSE Modell + GP:             0.001825
Maximum RMSE Modell:                    1.209615
Maximum RMSE Modell + GP:               0.085832
Mittelwert RMSE Modell:                 0.454401
Mittelwert RMSE Modell + GP:            0.031943
