Versuch:                                V1-R5-DPM1-GPK0-TD300-SW1-MW1
Messrauschen:                           nein
DP-Identifikation:                      einfach
GP-Kernel:                              Matern(length_scale=5, nu=1.5) + WhiteKernel(noise_level=1)
Trainingsdaten:                         300
Schrittweite:                           1
Mittelwertweite:                        1

MSE Modell:
[ 11.45925735   0.14445632   0.38215107  40.53283499  92.77820668
  75.13636005 135.49990905  61.25837052 213.99742658   1.12269887
   1.0619343    0.87535334   4.35881806  49.84962879   0.15814051
  27.36605411  25.0037474   55.27199253  19.74318547   4.86027981
  20.1620273   15.69466129   1.56693726  15.55540083  24.8969116
   7.16457493   8.41933393  50.4127808   22.10638361  24.58981746
   3.58741955  94.53881353   4.78846447   2.87761638 192.85924513
   0.41024809   0.63642395 126.47863363   0.48466831  41.62400617
  22.21894935   1.63642146  60.01564572  41.50641562 213.81602811
   2.06517818  26.76090856   2.33421089 100.46277592 123.6293175
 131.11773681  39.20762247  55.68119721   9.31048666  54.66108927
  53.21063206  13.87309309   0.43431244   0.73194921   8.79491068
  85.67451851  15.93761727   0.18211761   0.16510665  59.55875638
  12.77750825   4.46868463 206.78012351   4.35076963  32.99229205
  50.96701889  15.72079412  74.28131226  11.01975912 172.46356855
   4.39464459  12.49412469   1.31921575   5.78207094 140.31256425
  26.39419616  34.09210695  62.9274613   48.85866382  10.33529663
  20.42983196  16.43219964   3.89502824 193.19926409   0.87793117
   0.64564945  14.13382023  25.29440172   0.12789135   3.05036828
  36.49230145   0.71391075   5.38465279   1.9207604  170.87649629]

MSE Modell + GP:
[  0.07090376   0.08025609   0.08287196   0.10457449   0.1681805
   0.10331901   0.12538777   0.12172456 173.97011893   0.0757918
   0.08208599   0.07993481   0.07546858   0.12125603   0.07197185
   0.10158667   0.08843193   0.11061104   0.07674411   0.07427739
   0.08164525   0.0767855    0.07375249   0.09261921   0.11771754
   0.07388156   0.08355679   0.12155104   0.08002626   0.09372312
   0.06970268   0.14269352   0.07536172   0.07509824 138.83209701
   0.06976824   0.07782616  81.50761726   0.08112567   0.10264121
   0.09427707   0.07326991   0.10165214   0.09106475 131.22274669
   0.07299857   0.08664783   0.0670883    0.1234131   81.628697
 126.79415275   0.08981231   0.09446855   0.06977005   0.09983641
   0.13396274   0.0811451    0.08226307   0.07923118   0.07355091
   0.16211319   0.07390458   0.08219038   0.07657926   0.12918744
   0.07158602   0.07632712 198.45849474   0.07242013   0.10255949
   0.12165143   0.0814563    0.15938944   0.07002795 171.45758223
   0.08580499   0.0851365    0.07621565   0.07604013 140.31257324
   0.09032028   0.10504097   0.10109842   0.11566558   0.0685357
   0.09102656   0.08331878   0.08687637 109.4967472    0.08256503
   0.06491622   0.08497044   0.086527     0.09186742   0.07369111
   0.10936512   0.0807165    0.07325008   0.07530926 165.85462281]
RMSE Modell:
[ 3.38515249  0.3800741   0.61818368  6.36654027  9.63214445  8.66812321
 11.64044282  7.82677268 14.62865088  1.05957485  1.03050196  0.9356032
  2.08777826  7.06042696  0.39766885  5.23125741  5.00037473  7.4345136
  4.44333045  2.20460423  4.49021462  3.96164881  1.25177365  3.94403357
  4.98968051  2.67667236  2.90160885  7.10019583  4.70174261  4.9588121
  1.89404845  9.7231072   2.18825603  1.69635385 13.88737719  0.64050612
  0.79776184 11.24627199  0.69618124  6.45166693  4.71369805  1.2792269
  7.74697655  6.44254729 14.62244946  1.43707278  5.17309468  1.52781245
 10.02311209 11.11887213 11.45066534  6.26159903  7.46198346  3.05130901
  7.39331382  7.29456181  3.72466013  0.65902386  0.8555403   2.96562147
  9.25605307  3.99219454  0.4267524   0.40633317  7.71743198  3.57456406
  2.11392635 14.3798513   2.08584986  5.74389172  7.13911892  3.96494566
  8.6186607   3.31960225 13.13253854  2.09634076  3.53470291  1.14857118
  2.40459372 11.84536045  5.13752821  5.83884466  7.93268311  6.98989727
  3.21485562  4.51993716  4.05366496  1.97358259 13.89961381  0.93697981
  0.80352315  3.75949734  5.02935401  0.357619    1.74653035  6.04088582
  0.8449324   2.32048546  1.385915   13.0719737 ]

RMSE Modell + GP:
[ 0.26627759  0.28329505  0.2878749   0.3233798   0.41009816  0.32143275
  0.35410135  0.34889047 13.18977327  0.27530311  0.28650653  0.28272745
  0.27471545  0.34821837  0.2682757   0.31872664  0.29737506  0.33258239
  0.27702727  0.27253879  0.28573632  0.27710198  0.2715741   0.30433404
  0.3430999   0.27181162  0.28906191  0.34864171  0.28288913  0.30614232
  0.26401266  0.37774796  0.27452088  0.27404057 11.7827033   0.26413678
  0.27897341  9.02815691  0.28482568  0.32037666  0.30704571  0.27068415
  0.31882933  0.30176936 11.45524974  0.27018248  0.29436003  0.25901409
  0.35130201  9.0348601  11.26029097  0.29968702  0.30735737  0.26414021
  0.315969    0.36600921  0.28485978  0.28681539  0.28148033  0.2712027
  0.40263283  0.27185398  0.28668865  0.27672957  0.35942654  0.26755564
  0.27627363 14.08752976  0.26910988  0.32024911  0.34878565  0.2854055
  0.39923608  0.26462795 13.09418124  0.29292489  0.2917816   0.27607183
  0.27575375 11.84536083  0.30053332  0.32410025  0.31795978  0.34009642
  0.26179325  0.30170608  0.28864992  0.29474798 10.46406934  0.28734132
  0.25478663  0.29149689  0.29415472  0.30309638  0.27146106  0.33070398
  0.28410649  0.27064752  0.27442533 12.87845576]

Aufzeichnung Mittelwerte

Mittelwert Time Modell:                 -0.642712
Mittelwert Time GP:                     -0.741387
Maximum MSE Modell:                     213.997427
Maximum MSE Modell + GP:                198.458495
Mittelwert MSE Modell:                  40.289089
Mittelwert MSE Modell + GP:             15.276224
Maximum RMSE Modell:                    14.628651
Maximum RMSE Modell + GP:               14.087530
Mittelwert RMSE Modell:                 5.021924
Mittelwert RMSE Modell + GP:            1.547766
