Versuch:                                V1-R10-DPM0-GPK0-TD200-SW2-MW1
Messrauschen:                           nein
DP-Identifikation:                      einfach
GP-Kernel:                              Matern(length_scale=5, nu=1.5) + WhiteKernel(noise_level=1)
Trainingsdaten:                         400
Schrittweite:                           2
Mittelwertweite:                        1

MSE Modell:
[127.27855307  30.62958101 144.85241034 535.94195038 711.17209006
  16.59874599 223.15012312  21.31533133 277.88493736 182.78981861
  39.71178968 208.70278446 252.85815997 166.05968553 180.20551673
  34.74533481  46.91278334 755.35448002 158.48940569 103.96240474
  55.41591141 213.51099448 366.23554043 823.15176882  33.02094042
 189.24610432 162.53098097  74.44211711  24.6179338  261.07894948
 219.94747924  87.53934283 148.42478228  17.98448392 314.59005688
  74.90613118  33.74444938 203.26573493  75.5107031   24.49361383
 330.23854891  31.84231168 268.03708424 108.68307151  74.49355758
 112.60293935 142.50545295 831.11201714 263.62374317 129.19865761
  67.26445839  65.75876785  13.29764489  89.87515694  90.70438836
 116.98905083 214.39517874 679.6072583  249.52850319 762.41942044
  46.18406822 497.74905915  72.53286518  17.64767222 322.91535163
  49.59499332 635.23368077 115.08122687 106.62341738 190.85102826
 133.49780899  76.4629835  129.52868723  82.18726882 140.51728348
 429.25723143 180.70930029  29.04049365  94.67782017  86.94117011
 296.83662832  69.64645189  61.30553544  96.18431873 248.35427727
 248.7922784  136.4190093   25.80181932 453.24434699 138.21595779
 268.76079483 141.46985398 423.03345473 134.44851694 112.35698213
  12.96628936 190.78402097  73.64928086   9.19003047 228.96181044]

MSE Modell + GP:
[127.04188922   0.30075618 126.33826598 532.33146691 684.41910167
   0.29644831 221.67503218   0.37561004 241.22549331 153.58516011
   0.36203293 208.70264769 252.85816203 141.23499781 161.91183054
   0.35720348   0.35424506 733.18616325 134.6314781   63.35571519
  28.93976676 212.16646871 340.35864343 823.14503995   0.4812017
 162.46829067 126.48038721  49.56858735   0.34704932 261.07765117
 217.64530828  63.86629029 127.62445757   0.31844268 284.30900771
  49.23345659   0.37177366 184.37575144  48.87350813   0.34723566
 307.35143952   0.32198262 241.54739867 108.68302266  43.54993044
 112.60292758 140.82224084 831.11201851 234.12090445 129.1986837
  32.48181404  43.01964225   0.33108806  65.22127699  66.31816809
  81.97604202 214.39518089 657.82559002 249.52850291 741.91032981
  23.96960697 494.88788912  52.49627716   0.31617807 321.35173828
   0.34127669 635.23366865  84.16112247 106.62341663 188.26818631
 133.49780791  46.93243544 129.52859357  56.60369912 140.49334119
 405.70926666 161.71418018   0.3331175   72.57198378  65.59332423
 270.26849641  69.64662594  32.14721842  75.84089006 226.97276552
 248.59799307 136.41901005   0.31719938 453.24435795 138.21591742
 234.86299996 141.46985176 418.79495273 134.44851077 112.35698861
   0.32831746 190.7840437   47.21750333   0.30408814 227.39324339]
RMSE Modell:
[ 9.00013016  4.08867914  9.06269352 17.73242609 20.06985979  3.23109667
 11.56685276  3.5888441  14.46251033 11.46147168  4.99205236 11.19432802
 12.98935286  9.88511784 10.17588389  4.51886931  5.38875973 20.63992356
  9.19338228  8.89466935  6.04282542 11.35273286 14.98790407 20.66647616
  4.34312812 11.00017308 11.03797032  7.04986074  3.87538495 13.45103369
 11.38154841  7.47765246  9.40982497  3.35762336 14.38649622  6.68107077
  5.00717322 11.1072388   6.55661906  4.05094484 13.22425663  4.78032736
 12.66902181  7.85473145  6.71037613  8.15528692  8.96890653 21.25128862
 13.48617297  8.83422138  6.67415331  6.13977439  2.89214335  7.64279473
  7.40936642  9.14967332 11.40063826 19.07104524 13.69775297 21.19348597
  5.22538385 16.99052331  6.28007764  3.4038306  14.21399378  6.11655485
 18.12136181  9.02348992  7.69781482 10.26981456  8.88872339  7.26317734
  8.37085317  7.0277024  10.00818341 14.98267186 10.33414818  4.5923369
  7.35908843  7.04995607 13.2619097   6.85362465  6.04216194  7.48364919
 12.99315971 13.03599312  8.83767484  3.91733717 15.26428726  9.86597575
 13.53562759  8.46428867 15.62915442  8.22824989  8.34933086  2.98498336
 10.67000945  6.90923628  2.62980099 11.66366147]

RMSE Modell + GP:
[ 8.99048382  0.45707217  8.38645174 17.62201923 19.66439252  0.43911872
 11.50088929  0.50543577 13.3677588  10.46984421  0.49696868 11.19424697
 12.98936743  9.07813275  9.58181538  0.51180268  0.48523113 20.31113647
  8.38758249  6.90610354  4.25592233 11.32099645 14.39956678 20.66621155
  0.56082895 10.16154165  9.65276322  5.74419753  0.46438479 13.45087356
 11.30021949  6.24367387  8.63726753  0.47415243 13.59374406  5.39169363
  0.51753801 10.54261053  5.27706066  0.48098386 12.76930108  0.47546764
 11.99025977  7.85469829  4.91294962  8.15527935  8.964453   21.25128899
 12.62879554  8.83423193  4.61494887  4.9471672   0.48892176  6.3683341
  6.29750743  7.60824749 11.40065005 18.75564474 13.6977478  20.89689206
  3.74599014 16.94358673  5.3449966   0.46200648 14.19346075  0.47033631
 18.12135129  7.69655688  7.69781312 10.09852531  8.88872287  5.6493929
  8.37082079  5.8093598   9.99491294 14.58355939  9.75989324  0.47801396
  6.44243771  6.10414316 12.62896564  6.85372837  4.28244749  6.6169614
 12.36079673 13.03058353  8.83767853  0.45105388 15.2642998   9.86596434
 12.636724    8.46426525 15.47727618  8.22823073  8.34933649  0.48439082
 10.67003089  5.47061303  0.47001987 11.75895472]

Aufzeichnung Mittelwerte

Mittelwert Time Modell:                 -0.843281
Mittelwert Time GP:                     -0.320338
Maximum MSE Modell:                     831.112017
Maximum MSE Modell + GP:                831.112019
Mittelwert MSE Modell:                  190.721062
Mittelwert MSE Modell + GP:             173.491183
Maximum RMSE Modell:                    21.251289
Maximum RMSE Modell + GP:               21.251289
Mittelwert RMSE Modell:                 9.664058
Mittelwert RMSE Modell + GP:            8.504531
